<?xml version="1.0" encoding="utf-8"?>
<!-- Generator: Adobe Illustrator 19.0.0, SVG Export Plug-In . SVG Version: 6.00 Build 0)  -->
<svg version="1.1" id="Layer_1" xmlns="http://www.w3.org/2000/svg" xmlns:xlink="http://www.w3.org/1999/xlink" x="0px" y="0px"
	 viewBox="0 0 308.3 502.1" style="enable-background:new 0 0 308.3 502.1;" xml:space="preserve">
<style type="text/css">
	.st0{fill-rule:evenodd;clip-rule:evenodd;fill:#00B5E2;}
</style>
<path class="st0" d="M142.6,187.6C130.9,161.2,100,48.8,43.8,65.4C-5.1,79.8-41,241.1,95.7,467c29.5,48.7,67.8,45.6,98.3-2.4
	c58.2-91,153.8-369.3,96.7-454.5C286,3.1,280.6,0,274.6,0C232.7-0.2,163.9,151.2,142.6,187.6z"/>
</svg>
