<?xml version="1.0" encoding="utf-8"?>
<svg version="1.1" id="Layer_1" xmlns="http://www.w3.org/2000/svg" xmlns:xlink="http://www.w3.org/1999/xlink" x="0px" y="0px"
	 viewBox="0 0 435.1 407.3" style="enable-background:new 0 0 435.1 407.3;" xml:space="preserve">
	<path fill="#F8992D" d="M434.5,241.5C443.3,163,353.2,42,268.6,10.9C232.1-2.5,186.2-8.8,156.3,23.5c-26.1,28-12.2,65.7,3.6,97
		c13.3,26.4,3.4,37.7-20.7,47.7c-24.4,10-48.1,22.3-70.5,36.2c-37,22.9-68.8,56.4-68.7,96.4c0,7.4,1.1,15.1,3.5,22.9
		C68.1,537.9,430.5,277.2,434.5,241.5z"/>
</svg>
